…
topFoods(food_nondiabetic_df, colorPalette[5], colorPalette[4])

This is the TF-IDF table of the meal description words. Rather than grouping IDF by ‘document’ this data is grouped by quality.

# TF-IDF
tfidf <- function(df, group){
  unnest_tokens(df, word, description) %>%
  anti_join(stop_words, by = "word") %>%
  filter(stri_detect(word, regex = "^(\\D)")) %>% 
  count(word, across({{ group }}), name = "n") %>%
  bind_tf_idf(word, {{ group }}, n)
}
tfidf(food_diabetic_df, "quality")

## # A tibble: 258 x 6
##    word     quality            n      tf   idf  tf_idf
##    <chr>    <ord>          <int>   <dbl> <dbl>   <dbl>
##  1 alfalfa  Good quality       1 0.00549 1.10  0.00604
##  2 apple    Good quality       1 0.00549 0     0      
##  3 apple    Medium quality     2 0.0137  0     0      
##  4 apple    Low quality        1 0.00699 0     0      
##  5 asiago   Good quality       3 0.0165  0.405 0.00668
##  6 asiago   Medium quality     2 0.0137  0.405 0.00555
##  7 au       Good quality       1 0.00549 1.10  0.00604
##  8 babybel  Medium quality     1 0.00685 1.10  0.00752
##  9 baguette Low quality        1 0.00699 1.10  0.00768
## 10 baked    Good quality       2 0.0110  1.10  0.0121 
## # ... with 248 more rows
…
