…
diabetes_top_sim

## # A tibble: 80 x 3
##    journal_x                 journal_diabetes                   cosine_similari~
##    <chr>                     <chr>                                         <dbl>
##  1 Nutrients                 Diabetology & metabolic syndrome              0.270
##  2 PloS one                  Diabetology & metabolic syndrome              0.268
##  3 Pediatric dimensions      Journal of diabetes research                  0.229
##  4 Nature metabolism         Journal of diabetes research                  0.219
##  5 Monographs of the Societ~ JMIR diabetes                                 0.237
##  6 JMIR mHealth and uHealth  JMIR diabetes                                 0.236
##  7 Progress in cardiovascul~ Diabetes therapy : research, trea~            0.347
##  8 BMJ (Clinical research e~ Diabetes therapy : research, trea~            0.220
##  9 The Journal of endocrino~ Diabetes                                      0.226
## 10 Frontiers in endocrinolo~ Diabetes                                      0.209
## # ... with 70 more rows
…
